{
  "A Model Description Language for Computational Neuroscience.": "A Model Description Language for Computational Neuroscience.",
  "A Python package for simulator-independent specification of neuronal network models.": "A Python package for simulator-independent specification of neuronal network models.",
  "A highly flexible and extensible simulator for modelling spiking neural networks.": "A highly flexible and extensible simulator for modelling spiking neural networks.",
  "A plethora of Free/Open source computational modelling tools for Neuroscience in one easy to use downloadable image! Download, install (or don't!) and get down to work!\n\nThe NeuroFedora team has developed the Comp-Neuro lab specially to enable computational neuroscience. It includes everything you will need to get your work done\u2014modelling software, analysis tools, general productivity tools\u2014all well integrated with the modern GNOME platform to give you a complete operating system.": "A plethora of Free/Open source computational modelling tools for Neuroscience in one easy to use downloadable image! Download, install (or don't!) and get down to work!\n\nThe NeuroFedora team has developed the Comp-Neuro lab specially to enable computational neuroscience. It includes everything you will need to get your work done\u2014modelling software, analysis tools, general productivity tools\u2014all well integrated with the modern GNOME platform to give you a complete operating system.",
  "A simulation environment for detailed modelling of individual neurons and networks of neurons.": "A simulation environment for detailed modelling of individual neurons and networks of neurons.",
  "A simulation environment for modelling large scale spiking neural networks.": "A simulation environment for modelling large scale spiking neural networks.",
  "Brian": "Brian",
  "Develop, simulate, parallelize, analyze, and optimize biological neuronal networks using the NEURON simulator.": "Develop, simulate, parallelize, analyze, and optimize biological neuronal networks using the NEURON simulator.",
  "Documentation": "Documentation",
  "Featured Applications": "Featured Applications",
  "Fedora Comp-Neuro Lab": "Fedora Comp-Neuro Lab",
  "GENESIS": "GENESIS",
  "MOOSE": "MOOSE",
  "Model subcellular components, biochemical reactions, complex models of single neurons, and networks.": "Model subcellular components, biochemical reactions, complex models of single neurons, and networks.",
  "NEST": "NEST",
  "NetPyNE": "NetPyNE",
  "NeuroML": "NeuroML",
  "Neuron": "Neuron",
  "PyNN": "PyNN",
  "SciPy": "SciPy",
  "Simulate stochastic chemical computations, multicompartment single-neuron models, and spiking neuron network models.": "Simulate stochastic chemical computations, multicompartment single-neuron models, and spiking neuron network models.",
  "The complete Python Science stack, for teaching, modelling, and analysis.": "The complete Python Science stack, for teaching, modelling, and analysis."
}