{
  "Languages": "",
  "Downloads": "",
  "Community": "",
  "Contributors": "",
  "Support": "",
  "Fedora Logo": "",
  "Privacy Statement": "",
  "Legal": "",
  "Code of Conduct": "",
  "help_improve_this_website": "Help improve this website on the {cms} or the {gitlab_repo}",
  "Sponsors": "",
  "Sponsored by Red Hat Logo": "",
  "Fedora is sponsored by Red Hat": "",
  "Learn more about the relationship between Red Hat and Fedora": ""
}
